…
Next, I’ll make a new dataframe, df\_year, that groups the data by year,
political spectrum, and views about the scientific community. The total
counts and proportion of respondents is calculated within each
sub-group:

``` r
df_year <- df %>% group_by(year,polviews,consci) %>% 
  summarise(n=n()) %>% mutate(Proportion = n / sum(n))  
df_year
```

    ## # A tibble: 543 x 5
    ## # Groups:   year, polviews [182]
    ##     year polviews          consci           n Proportion
    ##    <int> <fct>             <fct>        <int>      <dbl>
    ##  1  1974 Extremely Liberal A Great Deal     9     0.429 
    ##  2  1974 Extremely Liberal Only Some       10     0.476 
    ##  3  1974 Extremely Liberal Hardly Any       2     0.0952
    ##  4  1974 Liberal           A Great Deal    93     0.520 
    ##  5  1974 Liberal           Only Some       72     0.402 
    ##  6  1974 Liberal           Hardly Any      14     0.0782
    ##  7  1974 Slightly Liberal  A Great Deal    93     0.497 
    ##  8  1974 Slightly Liberal  Only Some       85     0.455 
    ##  9  1974 Slightly Liberal  Hardly Any       9     0.0481
    ## 10  1974 Moderate          A Great Deal   257     0.492 
    ## # ... with 533 more rows
…
